{
  "promo": 2022,
  "semester": 5,
  "projects": [
    {
      "module": "B5 - FR - Écrits Professionnels",
      "project": "Avocat du diable",
      "start": "2019-09-16",
      "end": "2019-10-06",
      "bttf": false
    },
    {
      "module": "B5 - FR - Écrits Professionnels",
      "project": "3 emails",
      "start": "2019-10-07",
      "end": "2019-10-27",
      "bttf": false
    },
    {
      "module": "B5 - FR - Écrits Professionnels",
      "project": "Mémo professionel",
      "start": "2019-10-28",
      "end": "2019-11-17",
      "bttf": false
    },
    {
      "module": "B5 - FR - Écrits Professionnels",
      "project": "Informer: Le magasine du geek",
      "start": "2019-11-11",
      "end": "2020-01-12",
      "bttf": false
    },
    {
      "module": "B5 - Advanced C++ - Babel",
      "project": "Babel",
      "start": "2019-09-16",
      "end": "2019-10-06",
      "bttf": false
    },
    {
      "module": "B5 - Advanced C++ - Babel",
      "project": "BTTF - Babel",
      "start": "2019-11-04",
      "end": "2019-11-10",
      "bttf": true
    },
    {
      "module": "B5 - Advanced C++ - Babel",
      "project": "BTTF 2 - Babel",
      "start": "2019-12-16",
      "end": "2019-12-29",
      "bttf": true
    },
    {
      "module": "B5 - Advanced C++ - R-Type",
      "project": "R-Type",
      "start": "2019-11-04",
      "end": "2019-12-01",
      "bttf": false
    },
    {
      "module": "B5 - Advanced C++ - R-Type",
      "project": "BTTF - R-Type",
      "start": "2019-12-16",
      "end": "2019-12-29",
      "bttf": true
    },
    {
      "module": "B5 - Advanced C++ - Zia",
      "project": "Zia",
      "start": "2020-01-06",
      "end": "2020-03-01",
      "bttf": false
    },
    {
      "module": "B5 - AppDev - AREA",
      "project": "AREA",
      "start": "2020-01-06",
      "end": "2020-03-01",
      "bttf": false
    },
    {
      "module": "B5 - AppDev - Dashboard",
      "project": "Dashboard",
      "start": "2019-10-28",
      "end": "2019-11-17",
      "bttf": false
    },
    {
      "module": "B5 - AppDev - Dashboard",
      "project": "BTTF - Dashboard",
      "start": "2019-12-16",
      "end": "2019-12-29",
      "bttf": true
    },
    {
      "module": "B5 - AppDev - Epicture",
      "project": "Epicture",
      "start": "2019-09-30",
      "end": "2019-10-20",
      "bttf": false
    },
    {
      "module": "B5 - AppDev - Epicture",
      "project": "BTTF - Epicture",
      "start": "2019-11-04",
      "end": "2019-11-10",
      "bttf": true
    },
    {
      "module": "B5 - AppDev - Epicture",
      "project": "BTTF 2 - Epicture",
      "start": "2019-12-16",
      "end": "2019-12-29",
      "bttf": true
    },
    {
      "module": "B5 - Artificial Intelligence",
      "project": "Gomoku",
      "start": "2019-10-07",
      "end": "2019-10-27",
      "bttf": false
    },
    {
      "module": "B5 - Artificial Intelligence",
      "project": "BTTF - Gomoku",
      "start": "2019-11-04",
      "end": "2019-11-10",
      "bttf": true
    },
    {
      "module": "B5 - Artificial Intelligence",
      "project": "BTTF 2 - Gomoku",
      "start": "2019-12-16",
      "end": "2019-12-29",
      "bttf": true
    },
    {
      "module": "B5 - DevOps",
      "project": "Docker Containerization",
      "start": "2019-10-21",
      "end": "2019-11-03",
      "bttf": false
    },
    {
      "module": "B5 - DevOps",
      "project": "Automation",
      "start": "2019-11-04",
      "end": "2019-11-17",
      "bttf": false
    },
    {
      "module": "B5 - DevOps",
      "project": "Orchestrator",
      "start": "2019-11-18",
      "end": "2019-12-15",
      "bttf": false
    },
    {
      "module": "B5 - Functional Prog - dumbXML",
      "project": "dumbXML",
      "start": "2019-11-18",
      "end": "2020-01-05",
      "bttf": false
    },
    {
      "module": "B5 - Functional Prog - dumbXML",
      "project": "BTTF - dumbXML",
      "start": "2020-01-13",
      "end": "2020-01-19",
      "bttf": true
    },
    {
      "module": "B5 - Functional Prog - evalExpr",
      "project": "functional evalExpr",
      "start": "2019-10-21",
      "end": "2019-11-03",
      "bttf": false
    },
    {
      "module": "B5 - Functional Prog - evalExpr",
      "project": "BTTF - functional evalExpr",
      "start": "2019-11-04",
      "end": "2019-11-10",
      "bttf": true
    },
    {
      "module": "B5 - Functional Prog - evalExpr",
      "project": "BTTF 2 - functional evalExpr",
      "start": "2019-12-16",
      "end": "2019-12-29",
      "bttf": true
    },
    {
      "module": "B5 - Functional Prog - KOAK",
      "project": "KOAK",
      "start": "2020-01-06",
      "end": "2020-03-01",
      "bttf": false
    },
    {
      "module": "B5 - Innov. - Moonshot",
      "project": "#TOGETHER",
      "start": "2019-09-02",
      "end": "2019-09-03",
      "bttf": false
    },
    {
      "module": "B5 - Innov. - Moonshot",
      "project": "#CLIMATE",
      "start": "2019-09-03",
      "end": "2019-09-04",
      "bttf": false
    },
    {
      "module": "B5 - Innov. - Moonshot",
      "project": "#LIFE",
      "start": "2019-09-04",
      "end": "2019-09-05",
      "bttf": false
    },
    {
      "module": "B5 - Innov. - Moonshot",
      "project": "#WORK",
      "start": "2019-09-05",
      "end": "2019-09-06",
      "bttf": false
    },
    {
      "module": "B5 - Innov. - Moonshot",
      "project": "Hack'InTrack",
      "start": "2019-09-07",
      "end": "2019-09-08",
      "bttf": false
    },
    {
      "module": "B5 - Innov. - Moonshot",
      "project": "Moonshot Solution",
      "start": "2019-09-09",
      "end": "2019-09-12",
      "bttf": false
    },
    {
      "module": "B5 - Mathematics",
      "project": "301dannon",
      "start": "2019-09-16",
      "end": "2019-09-29",
      "bttf": false
    },
    {
      "module": "B5 - Mathematics",
      "project": "302separation",
      "start": "2019-09-30",
      "end": "2019-10-13",
      "bttf": false
    },
    {
      "module": "B5 - Mathematics",
      "project": "303make",
      "start": "2019-10-14",
      "end": "2019-10-27",
      "bttf": false
    },
    {
      "module": "B5 - Mathematics",
      "project": "304pacman",
      "start": "2019-10-28",
      "end": "2019-11-10",
      "bttf": false
    },
    {
      "module": "B5 - Mathematics",
      "project": "305construction",
      "start": "2019-11-11",
      "end": "2019-11-24",
      "bttf": false
    },
    {
      "module": "B5 - Mathematics",
      "project": "306radiator",
      "start": "2019-11-25",
      "end": "2019-12-22",
      "bttf": false
    },
    {
      "module": "B5 - Mathematics",
      "project": "307multigrains",
      "start": "2019-12-23",
      "end": "2020-01-12",
      "bttf": false
    },
    {
      "module": "B5 - Mathematics",
      "project": "308reedpipes",
      "start": "2020-01-13",
      "end": "2020-01-26",
      "bttf": false
    },
    {
      "module": "B5 - Mathematics",
      "project": "309pollution",
      "start": "2020-01-27",
      "end": "2020-02-09",
      "bttf": false
    },
    {
      "module": "B5 - Part-Time Job",
      "project": "Part-time internship",
      "start": "2019-09-16",
      "end": "2020-03-08",
      "bttf": false
    },
    {
      "module": "B5 - Security - Cryptography",
      "project": "Call For Papers",
      "start": "2019-09-02",
      "end": "2019-09-29",
      "bttf": false
    },
    {
      "module": "B5 - Security - Cryptography",
      "project": "CAESAR",
      "start": "2019-09-16",
      "end": "2019-09-29",
      "bttf": false
    },
    {
      "module": "B5 - Security - Cryptography",
      "project": "BTTF - CAESAR",
      "start": "2019-11-04",
      "end": "2019-11-10",
      "bttf": true
    },
    {
      "module": "B5 - Security - Cryptography",
      "project": "BTTF 2 - CAESAR",
      "start": "2019-12-16",
      "end": "2019-12-29",
      "bttf": true
    }
  ]
}
